{
  "name": "Jew Pack/Chosen People Pack",
  "preselected": false,
  "language": "english",
  "description": "Fun fact: 100% of the Cards Against Humanity writers are Jewish. Can you believe it? A Jewish comedy writer! Anything is possible in 2016. 30 cards from their big brains full of facts and sadness. Previously released as part of Cards Against Humanity\u2019s Eight Sensible Gifts for Hanukkah. Released November 10, 2015.",
  "statements": [
    "According to Freud, all children progress through three stages of development: the oral stage, the anal stage, and the ___ stage.",
    "Can't you see? The Jews are behind everything-the banks, the media, even ___!",
    "Coming to Broadway next season: \"___ on the Roof.\"",
    "Oh, your daughter should meet my son! He gives to charity, he loves ___ and did I mention he's a doctor?",
    "What's so important right now that you can't call your mother?"
  ],
  "answers": [
    "A big brain full of facts and sadness.",
    "A headache that's definitely cancer.",
    "A lifetime of internalized guilt.",
    "A little bit of schmutz right there.",
    "A three-foot-tall corned beef sandwich.",
    "Bags of money.",
    "Being chosen by God to win a free iPod Nano.",
    "Chopping off a bit of the penis.",
    "Demolishing that ass like a Palestinian village.",
    "Hiding from the Nazis.",
    "Holding up the line at Walgreens by trying to use an expired coupon.",
    "Pork products.",
    "Resurrecting an army of six million Jews and conquering Germany.",
    "Sacrificing Isaac to the Lord.",
    "Some kind of concentrated encampment for people.",
    "Suddenly remembering that the Holocaust happened.",
    "The blood of Christian babies.",
    "The ethical implications of enjoying a Woody Allen film in light of the allegations against him.",
    "The part of Anne Frank's diary where she talks about her vagina.",
    "Thy neighbor's wife.",
    "Torturing Jews until they say they're not Jews anymore.",
    "Usury.",
    "Wandering the desert for 40 years.",
    "What it means to be a Jewish woman in contemporary society.",
    "Whoopi Goldberg."
  ]
}