{
  "name": "Cards against Humanity Red Expansion",
  "preselected": true,
  "language": "english",
  "description": "The Red Box contains 300 cards, making it a better bludgeoning weapon against home invaders. 300 fresh cards to mix into your game. Contains exactly the same cards that used to be in the First, Second, and Third Expansions. Don’t you guys miss Barack Obama? (70 cards)",
  "statements": [
    "___ would be woefully incomplete without ___.",
    "___: Hours of fun. Easy to use. Perfect for ___!",
    "___. Awesome in theory, kind of a mess in practice.",
    "A remarkable new study has shown that chimps have evolved their own primitive version of ___.",
    "A successful job interview begins with a firm handshake and ends with ___.",
    "After months of practice with ___, I think I\u2019m finally ready for ___.",
    "And I would have gotten away with it, too, if it hadn't been for ___!",
    "And what did you bring for show and tell?",
    "As part of his contract, Prince won\u2019t perform without ___ in his dressing room.",
    "As part of his daily regimen, Anderson Cooper sets aside 15 minutes for ___.",
    "Awww, sick! I just say this skater do a 720 kickflip into ___!",
    "Before ___, all we had was ___.",
    "Before I run for president, I must destroy all evidence of my involvement with ___.",
    "Call the law offices of Goldstein & Goldstein, because no one should have to tolerate ___ in the workplace.",
    "Charades was ruined for me forever when my mom had to act out ___.",
    "Dear Sir or Madam, We regret to inform you that the Office of ___ has denied your request for ___.",
    "Doctor, you've gone too far! The human body wasn't meant to withstand that amount of ___!",
    "During high school I never really fit in until I found ___ club.",
    "During his midlife crisis, my dad got really into ___.",
    "Finally! A service that delivers ___ right to your door.",
    "Future Historians will agree that ___ marked the beginning of America's decline.",
    "Having problems with ___? Try ___!",
    "Hey baby, come back to my place and I\u2019ll show you ___.",
    "I learned the hard way that you can't cheer up a grieving friend with ___.",
    "I love being a mom. But it's tough when my kids come home filthy from ___. That's why there's Tide\u00ae.",
    "I spent my whole life working toward ___, only to have it ruined by ___.",
    "I went from ___ to ___, all thanks to ___.",
    "I\u2019m not like the rest of you. I\u2019m too rich and busy for ___.",
    "If God didn't want us to enjoy ___, he wouldn't have given us ___.",
    "In a pinch, ___ can be a suitable substitute for ___.",
    "In his new self-produced album, Kanye West raps over the sounds of ___.",
    "In his newest and most difficult stunt, David Blaine must escape from ___.",
    "In its new tourism campaign, Detroit proudly proclaims that it has finally eliminated ___.",
    "In Rome, there are whisperings that the Vatican has a secret room devoted to ___.",
    "In the seventh circle of Hell, sinners must endure ___ for all eternity.",
    "Legend has it Prince wouldn't perform without ___ in his dressing room.",
    "Listen, son. If you want to get involved with ___, I won\u2019t stop you. Just steer clear of ___.",
    "Little Miss Muffet Sat on a tuffet, Eating her curds and ___.",
    "Lovin\u2019 you is easy \u2019cause you\u2019re ___.",
    "Members of New York's social elite are paying thousands of dollars just to experience ___.",
    "Michael Bay's new three-hour action epic pits ___ against ___.",
    "Money can\u2019t buy me love, but it can buy me ___.",
    "My country, 'tis of thee, sweet land of ___.",
    "My gym teacher got fired for adding ___ to the obstacle course.",
    "My life is ruled by a vicious cycle of ___ and ___.",
    "My mom freaked out when she looked at my browser history and found ___.com\/___.",
    "My new favorite porn star is Joey \"___\" McGee.",
    "My plan for world domination begins with ___.",
    "Next time on Dr. Phil: How to talk to your child about ___.",
    "Next week on the Discovery Channel, one man must survive in the depths of the Amazon with only ___ and his wits.",
    "Only two things in life are certain: death and ___.",
    "Science will never explain ___.",
    "The blind date was going horribly until we discovered our shared interest in ___.",
    "The CIA now interrogates enemy agents by repeatedly subjecting them to ___.",
    "The Five Stages of Grief: denial, anger, bargaining, ___, acceptance.",
    "The healing process began when I joined a support group for victims of ___.",
    "The secret to a lasting marriage is communication, communication, and ___.",
    "This is your captain speaking. Fasten your seatbelts and prepare for ___.",
    "This month's Cosmo: \"Spice up your sex life by bringing ___ into the bedroom.\"",
    "To prepare for his upcoming role, Daniel Day-Lewis immersed himself in the world of ___.",
    "Tonight on 20\/20: What you don't know about ___ could kill you.",
    "Turns out that ___-Man was neither the hero we needed nor wanted.",
    "Welcome to Se\u00f1or Frog's! Would you like to try our signature cocktail, \u201c___ on the Beach\"?",
    "What brought the orgy to a grinding halt?",
    "What has been making life difficult at the nudist colony?",
    "What left this stain on my couch?",
    "What's harshing my mellow, man?",
    "When all else fails, I can always masturbate to ___.",
    "When I pooped, what came out of my butt?",
    "When you get right down to it, ___ is just ___.",
    "With enough time and pressure, ___ will turn into ___.",
    "You haven't truly lived until you've experienced ___ and ___ at the same time.",
    "Your persistence is admirable, my dear Prince. But you cannot win my heart with ___ alone."
  ],
  "answers": [
    "24-hour media coverage.",
    "A 55-gallon drum of lube.",
    "A big black dick.",
    "A bigger, blacker dick.",
    "A black-owned and operated business.",
    "A bloody pacifier.",
    "A boo-boo.",
    "A botched circumcision.",
    "A Burmese tiger pit.",
    "A cat video so cute that your eyes roll back and your spine slides out of your anus.",
    "A complicated relationship with food.",
    "A cop who is also a dog.",
    "A crappy little hand.",
    "A dollop of sour cream.",
    "A fat bald man from the internet.",
    "A fortuitous turnip harvest.",
    "A greased-up Matthew McConaughey.",
    "A Japanese toaster you can fuck.",
    "A Japanese tourist who wants something very badly but cannot communicate it.",
    "A lamprey swimming up the toilet and latching onto your taint.",
    "A low standard of living.",
    "A magic hippie love cloud.",
    "A man in yoga pants with a ponytail and feather earrings.",
    "A nautical theme.",
    "A nuanced critique.",
    "A passionate Latino lover.",
    "A phantasmagoria of anal delights.",
    "A pile of squirming bodies.",
    "A pi\u00f1ata full of scorpions.",
    "A plunger to the face.",
    "A PowerPoint presentation.",
    "A sad fat dragon with no friends.",
    "A sales team of clowns and pedophiles.",
    "A slightly shittier parallel universe.",
    "A smiling black man, a latina businesswoman, a cool Asian, and some whites.",
    "A sofa that says \u201cI have style, but I like to be comfortable.\u201d",
    "A spontaneous conga line.",
    "A squadron of moles wearing aviator goggles.",
    "A surprising amount of hair.",
    "A sweaty, panting leather daddy.",
    "A sweet spaceship.",
    "A vagina that leads to another dimension.",
    "A web of lies.",
    "Actually getting shot, for real.",
    "All my friends dying.",
    "All of this blood.",
    "An all-midget production of Shakespeare\u2019s Richard III.",
    "An army of skeletons.",
    "An ass disaster.",
    "An ether-soaked rag.",
    "An Etsy steampunk strap-on.",
    "An evil man in evil clothes.",
    "An unhinged ferris wheel rolling toward the sea.",
    "An unhinged Ferris wheel rolling toward the sea.",
    "An unstoppable wave of fire ants.",
    "Andr\u00e9 the Giant's enormous, leathery scrotum.",
    "Another shot of morphine.",
    "Basic human decency.",
    "Being a busy adult with many important things to do.",
    "Being a dinosaur.",
    "Being a hideous beast that no one could love.",
    "Being awesome at sex.",
    "Being black.",
    "Being fat from noodles.",
    "Being white.",
    "Big bad mama nipples.",
    "Big Bird's brown, crusty asshole.",
    "Big ol' floppy titties.",
    "Bill Clinton, naked on a bearskin rug with a saxophone.",
    "Blood farts.",
    "Blowing some dudes in an alley.",
    "Boris the Soviet Love Hammer.",
    "Bosnian chicken farmers.",
    "Bullshit.",
    "Buying the right pants to be cool.",
    "Catastrophic urethral trauma.",
    "Chugging a lava lamp.",
    "Clams.",
    "Clenched butt cheeks.",
    "Cock.",
    "Consent.",
    "Converting to Islam.",
    "Crabapples all over the fucking sidewalk.",
    "Crushing Mr. Peanut's brittle body.",
    "Crying into the pages of Sylvia Plath.",
    "Cumming deep inside my best bro.",
    "Dad's funny balls.",
    "Daddy's belt.",
    "Death by Steven Seagal.",
    "Deflowering the princess.",
    "Demonic possession.",
    "Dining with cardboard cutouts of the cast of \"Friends.\"",
    "Dining with cardboard cutouts of the cast of Friends.",
    "Disco fever.",
    "Dorito breath.",
    "Double penetration.",
    "Drinking my bro's pee-pee right out of his peen.",
    "Drinking ten 5-hour ENERGYs\u00ae to get fifty continuous hours of energy.",
    "Dying alone and in pain.",
    "Eating an albino.",
    "Eating Tom Selleck\u2019s mustache to gain his powers.",
    "Emotional baggage.",
    "Enormous Scandinavian women.",
    "Existing.",
    "Fabricating statistics.",
    "Fetal alcohol syndrome.",
    "Filling every orifice with butterscotch pudding.",
    "Filling my son with spaghetti.",
    "Finding Waldo.",
    "Fisting.",
    "Flying robots that kill people.",
    "Four hours of truly goofy sex with the Blue Man Group.",
    "Fuck Mountain.",
    "Gandalf.",
    "Gargling jizz.",
    "Gay aliens.",
    "Generational wealth.",
    "Genetically engineered super-soldiers.",
    "George Clooney's musk.",
    "Getting abducted by Peter Pan.",
    "Getting hilariously gang-banged by the Blue Man Group.",
    "Getting your dick stuck in a Chinese finger trap with another dick.",
    "Gladiatorial combat.",
    "Going around punching people.",
    "Grandpa's ashes.",
    "Graphic violence, adult language, and some sexual content.",
    "Having $57 in the bank.",
    "Having a penis.",
    "Having sex on top of a pizza.",
    "Having shotguns for legs.",
    "Hillary Clinton.",
    "Hipsters.",
    "Historical revisionism.",
    "Hot brown piss.",
    "Hot doooooooogs.",
    "How awesome it is to be white.",
    "How wet my pussy is.",
    "Huge tits and a can-do attitude.",
    "Indescribable loneliness.",
    "Insatiable bloodlust.",
    "Intimacy problems.",
    "Jafar.",
    "Jeff Goldblum.",
    "Jesus.",
    "Jumping out at people.",
    "Just the tip.",
    "Kim Jong-un.",
    "Letting everyone down.",
    "Leveling up.",
    "Literally eating shit.",
    "Living in a trash can.",
    "Living in a trashcan.",
    "Loki, the trickster god.",
    "Mad hacky-sack skills.",
    "Maintaining eye contact with a grown man while he takes a shit.",
    "Making a friend.",
    "Making shit up.",
    "Making the penises kiss.",
    "Masturbating in a robe like a rich person.",
    "Maximal insertion.",
    "Me.",
    "Medieval Times\u00ae Dinner & Tournament.",
    "Mild autism.",
    "Mom.",
    "Mooing.",
    "Moral ambiguity.",
    "Mufasa\u2019s death scene.",
    "Multiple orgasms.",
    "My father, who died when I was seven.",
    "My first kill.",
    "My machete.",
    "My manservant, Claude.",
    "Neil Patrick Harris.",
    "Not contributing to society in any meaningful way.",
    "Not having sex.",
    "Nothing.",
    "Nubile slave boys.",
    "Nunchuck moves.",
    "Ominous background music.",
    "Oncoming traffic.",
    "One Ring to rule them all.",
    "One thousand Slim Jims.",
    "Our mutual friend Brad.",
    "Overpowering your father.",
    "Power.",
    "Pretty Pretty Princess Dress-Up Board Game\u00ae.",
    "Pumping out a baby every nine months.",
    "Putting an entire peanut butter and jelly sandwich into the VCR.",
    "Quiche.",
    "Racial profiling.",
    "Revenge fucking.",
    "Reverse cowgirl.",
    "Rich people.",
    "Ripping into a man's chest and pulling out his still-beating heart.",
    "Ripping open a man\u2019s chest and pulling out his still-beating heart.",
    "Rising from the grave.",
    "Roland the Farter, flatulist to the king.",
    "Running naked through a mall, pissing and shitting everywhere.",
    "Ryan Gosling riding in on a white horse.",
    "Samuel L. Jackson.",
    "Sanding off a man's nose.",
    "Santa Claus.",
    "Savagely beating a mascot.",
    "Screaming like a maniac.",
    "Scrotal frostbite.",
    "Scrotum tickling.",
    "Self-flagellation.",
    "Sexual humiliation.",
    "Sexual intercourse.",
    "Shaft.",
    "Shitting out a screaming face.",
    "Shutting the fuck up.",
    "Sitting on a dick and sipping green tea.",
    "Slapping a racist old lady.",
    "Sneezing, farting, and cumming at the same time.",
    "Some douche with an acoustic guitar.",
    "Some kind of bird-man.",
    "Some really fucked-up shit.",
    "Sorcery.",
    "Special musical guest, Cher.",
    "Spending lots of money.",
    "Staring at a painting and going \"hmmmmmm...\"",
    "Statistically validated stereotypes.",
    "Stockholm Syndrome",
    "Subduing a grizzly bear and making her your wife.",
    "Sudden Poop Explosion Disease.",
    "Suicidal thoughts.",
    "Suicide bombers.",
    "Survivor's guilt.",
    "Swiftly achieving orgasm.",
    "Syphilitic insanity.",
    "Taking a man's eyes and balls out and putting his eyes where his balls go and then his balls in the eye holes.",
    "That ass.",
    "The baby that ruined my pussy.",
    "The black Power Ranger.",
    "The boners of the elderly.",
    "The day the birds attacked.",
    "The economy.",
    "The entire Internet.",
    "The flute.",
    "The four arms of Vishnu.",
    "The Gulags.",
    "The Harlem Globetrotters.",
    "The harsh light of day.",
    "The hiccups.",
    "The hose.",
    "The human body.",
    "The Land of Chocolate.",
    "The lingering scent of gardenias.",
    "The mere concept of Applebee's\u00ae.",
    "The milk that comes out of a person.",
    "The mixing of the races.",
    "The moist, demanding chasm of his mouth.",
    "The new Radiohead album.",
    "The ooze.",
    "The people of Florida.",
    "The primal, ball-slapping sex your parents are having right now.",
    "The prunes I've been saving for you in my armpits.",
    "The Quesadilla Explosion Salad\u2122 from Chili\u2019s.\u00ae",
    "The shambling corpse of Larry King.",
    "The systematic destruction of an entire people and their way of life.",
    "The thin veneer of situational causality that underlies porn.",
    "The total collapse of the global financial system.",
    "The way white people is.",
    "The worst pain imaginable. Times two!",
    "Three months in the hole.",
    "Tiny nipples.",
    "Tongue.",
    "Tripping balls.",
    "Unlimited soup, salad, and breadsticks.",
    "Velcro\u2122.",
    "Vietnam flashbacks.",
    "Vomiting mid-blowjob.",
    "Walking in on Dad peeing into Mom's mouth.",
    "Warm, velvety muppet sex.",
    "Weapons-grade plutonium.",
    "Wearing an octopus for a hat.",
    "Wet butt.",
    "Whining like a little bitch.",
    "Whipping a disobedient slave.",
    "White power.",
    "Words, words, words.",
    "Zeus's sexual appetites."
  ]
}