{
  "name": "2014 Holiday Pack",
  "preselected": true,
  "language": "english",
  "description": "Originally released as the 10 Days or Whatever of Kwanzaa promotion. Profits were donated to the Sunlight Foundation. Released November 10, 2014.",
  "statements": [
    "A curse upon thee! Many years from now, just when you think you're safe, ___ shall turn into ___.",
    "Behold the Four Horsemen of the Apocalypse! War, Famine, Death, and ___.",
    "Dear Mom and Dad, Camp is fun. I like capture the flag. Yesterday, one of the older kids taught me about ___. I love you, Casey",
    "Here lies First Last, Year-2015, devoted friend, lover of ___.",
    "Honey, Mommy and Daddy love you very much. But apparently Mommy loves ___ more than she loves Daddy.",
    "Today on Buzzfeed: 10 pictures of ___ That look like ___!",
    "Why am I so tired?"
  ],
  "answers": [
    "200 years of slavery.",
    "A cloud of ash that darkens the Earth for a thousand years.",
    "A protracted siege.",
    "A vague fear of something called ISIS.",
    "All the poop inside of my body.",
    "Being replaced by a robot.",
    "Blockbuster late fees up the wazoo.",
    "Building a ladder of hot dogs to the moon.",
    "Ebola.",
    "Harnessing the miraculous power of the atom to slaughter 200,000 Japanese people.",
    "Reading an entire book.",
    "Rising sea levels consistent with scientific predictions.",
    "Rock music and premarital sex.",
    "Small-town cops with M-4 assault rifles.",
    "The 9,000 children who starved to death today.",
    "The Bowflex Revolution.",
    "The diminishing purity of the white race.",
    "The dying breath of the last human.",
    "The events depicted in James Cameron's Avatar.",
    "The Great Lizard Uprising of 2352.",
    "The transience of all things.",
    "This groovy new thing called LSD.",
    "Trying to feel something, anything.",
    "What remains of my penis."
  ]
}