{
  "name": "Science Pack",
  "preselected": false,
  "language": "english",
  "description": "The Science Pack is a pack about the hit system of knowledge known worldwide as “science.” We wrote it with Phil Plait (Bad Astronomy) and Zach Weinersmith (SMBC). (100 cards)",
  "statements": [
    "A study published in Nature this week found that ___ is good for you in small doses.",
    "Hey there, Young Scientists! Put on your labcoats and strap on your safety goggles, because today we're learning about ___!",
    "In an attempt to recreate conditions just after the Big Bang, physicists at the LHC are observing collisions between ___ and ___.",
    "In line with our predictions, we find a robust correlation between ___ and ___ (p<.05).",
    "In what's being hailed as a major breakthrough, scientists have synthesized ___ in the lab.",
    "Today on Mythbusters, we found out how long ___ can withstand ___.",
    "What really killed the dinosaurs?"
  ],
  "answers": [
    "3.7 billion years of evolution.",
    "A 0.7 waist-to-hip ratio.",
    "A supermassive black hole.",
    "Achieving reproductive success.",
    "Being knowledgeable in a narrow domain that nobody understands or cares about.",
    "David Attenborough watching us mate.",
    "Developing secondary sex characteristics.",
    "Driving into a tornado to learn about tornadoes.",
    "Electroejaculating a capuchin monkey.",
    "Evolving a labyrinthine vagina.",
    "Explosive decompression.",
    "Failing the Turing test.",
    "Fun and interesting facts about rocks.",
    "Getting really worried about global warming for a few seconds.",
    "Infinity.",
    "Insufficient serotonin.",
    "Oxytocin release via manual stimulation of the nipples.",
    "Photosynthesis.",
    "Reconciling quantum theory with general relativity.",
    "Slowly evaporating.",
    "The quiet majesty of the sea turtle.",
    "The Sun engulfing the Earth.",
    "Uranus."
  ]
}