{
  "name": "Gen Con 2018 Midterm Election Pack",
  "preselected": false,
  "language": "english",
  "description": "(30 cards)",
  "statements": [
    "If Mike Pence could dream, he would dream about ___.",
    "What will finally make me care?"
  ],
  "answers": [
    "41 million Americans living in poverty.",
    "A law that allows factories to dump toxic waste into children's mouths.",
    "A living wage and affordable health care.",
    "A politician who doesn't blow monkey ass.",
    "Crowdfunding my daughter's bone marrow transplant.",
    "Donald Trump's latest fucking thing.",
    "Fentanyl.",
    "Fucking over future generations.",
    "ICE.",
    "Not thinking about the children in cages.",
    "Overturning Roe v. Wade.",
    "Propping up Ruth Bader Ginsburg's corpse and moving her jaw up and down.",
    "Pseudointellectual centrist bullshit.",
    "Rising to power on a wave of ethnic nationalism.",
    "Sean Spicer, Reince Priebus, Steve Bannon, Sebastian Gorka, Omarosa, Anthony Scaramucci, James Comey, Mike Flynn, Rex Tillerson, Ty Cobb, Andrew McCabe, K. T. McFarland, H. R. McMaster, Gary Cohn, Hope Hicks, Rob Porter, Scott Pruitt, and Tom Price.",
    "Totally ineffective political satire."
  ]
}